<svg width="24" height="24" viewBox="0 0 24 24" fill="none" xmlns="http://www.w3.org/2000/svg">
<path d="M5.99669 4.5C5.99669 3.70435 6.31276 2.94129 6.87537 2.37868C7.43798 1.81607 8.20104 1.5 8.99669 1.5H14.9967C15.7923 1.5 16.5554 1.81607 17.118 2.37868C17.6806 2.94129 17.9967 3.70435 17.9967 4.5H18.7467C19.3434 4.5 19.9157 4.73705 20.3377 5.15901C20.7596 5.58097 20.9967 6.15326 20.9967 6.75V8.25C20.9967 10.1265 19.6167 11.6805 17.8182 11.9565C17.524 13.1293 16.8826 14.186 15.9781 14.9884C15.0735 15.7908 13.9477 16.3014 12.7482 16.4535V18H14.9982C15.7938 18 16.5569 18.3161 17.1195 18.8787C17.6821 19.4413 17.9982 20.2044 17.9982 21V21.756C17.9982 21.9549 17.9192 22.1457 17.7785 22.2863C17.6379 22.427 17.4471 22.506 17.2482 22.506H6.74819C6.54928 22.506 6.35851 22.427 6.21786 22.2863C6.07721 22.1457 5.99819 21.9549 5.99819 21.756V21C5.99819 20.2044 6.31426 19.4413 6.87687 18.8787C7.43948 18.3161 8.20254 18 8.99819 18H11.2482V16.455C10.0477 16.3033 8.92105 15.7924 8.01583 14.9895C7.11062 14.1865 6.46905 13.1288 6.17519 11.955C5.2899 11.8187 4.48252 11.3703 3.89882 10.6909C3.31512 10.0114 2.99356 9.14573 2.99219 8.25V6.75C2.99219 6.15326 3.22924 5.58097 3.6512 5.15901C4.07315 4.73705 4.64545 4.5 5.24219 4.5H5.99819H5.99669ZM16.4967 4.5C16.4967 4.10218 16.3387 3.72064 16.0573 3.43934C15.776 3.15804 15.3945 3 14.9967 3H8.99669C8.59886 3 8.21733 3.15804 7.93603 3.43934C7.65472 3.72064 7.49669 4.10218 7.49669 4.5V10.5C7.48276 11.6935 7.94352 12.8436 8.77758 13.6974C9.61165 14.5511 10.7507 15.0386 11.9442 15.0525C13.1377 15.0664 14.2878 14.6057 15.1415 13.7716C15.9953 12.9375 16.4828 11.7985 16.4967 10.605V4.5ZM17.9967 10.371C18.4353 10.2159 18.8151 9.92869 19.0837 9.54885C19.3523 9.16901 19.4966 8.71523 19.4967 8.25V6.75C19.4967 6.55109 19.4177 6.36032 19.277 6.21967C19.1364 6.07902 18.9456 6 18.7467 6H17.9967V10.371ZM5.99669 6H5.24219C5.04328 6 4.85251 6.07902 4.71186 6.21967C4.5712 6.36032 4.49219 6.55109 4.49219 6.75V8.25C4.49219 9.2295 5.12219 10.0635 5.99669 10.3725V6ZM7.49669 21V21.006H16.4967V21C16.4967 20.6022 16.3387 20.2206 16.0573 19.9393C15.776 19.658 15.3945 19.5 14.9967 19.5H8.99669C8.59886 19.5 8.21733 19.658 7.93603 19.9393C7.65472 20.2206 7.49669 20.6022 7.49669 21Z" fill="#298FFE"/>
<path d="M16.4967 4.5C16.4967 4.10218 16.3387 3.72064 16.0573 3.43934C15.776 3.15804 15.3945 3 14.9967 3H8.99669C8.59886 3 8.21733 3.15804 7.93603 3.43934C7.65472 3.72064 7.49669 4.10218 7.49669 4.5V10.5C7.48276 11.6935 7.94352 12.8436 8.77758 13.6974C9.61165 14.5511 10.7507 15.0386 11.9442 15.0525C13.1377 15.0664 14.2878 14.6057 15.1415 13.7716C15.9953 12.9375 16.4828 11.7985 16.4967 10.605V4.5Z" fill="#298FFE"/>
<path d="M7.49669 21V21.006H16.4967V21C16.4967 20.6022 16.3387 20.2206 16.0573 19.9393C15.776 19.658 15.3945 19.5 14.9967 19.5H8.99669C8.59886 19.5 8.21733 19.658 7.93603 19.9393C7.65472 20.2206 7.49669 20.6022 7.49669 21Z" fill="#298FFE"/>
</svg>
