<svg width="48" height="48" viewBox="0 0 48 48" fill="none" xmlns="http://www.w3.org/2000/svg">
<rect x="5" y="27.5" width="38" height="3.5" fill="#FFA36F"/>
<rect x="5" y="10" width="38" height="28" rx="4" stroke="#FFA36F" stroke-width="3"/>
<rect x="31.6016" y="17" width="5.7" height="5.25" rx="1" fill="#FFA36F"/>
</svg>
