<svg width="24" height="24" viewBox="0 0 24 24" fill="none" xmlns="http://www.w3.org/2000/svg">
<path fill-rule="evenodd" clip-rule="evenodd" d="M14.7379 2.76175H8.08493C6.00493 2.75375 4.29993 4.41175 4.25093 6.49075V17.2037C4.20493 19.3167 5.87993 21.0677 7.99293 21.1147C8.02393 21.1147 8.05393 21.1157 8.08493 21.1147H16.0739C18.1679 21.0297 19.8179 19.2997 19.8029 17.2037V8.03775L14.7379 2.76175Z" stroke="#262626" stroke-width="1.5" stroke-linecap="round" stroke-linejoin="round"/>
<path d="M14.4766 2.75V5.659C14.4766 7.079 15.6246 8.23 17.0446 8.234H19.7996" stroke="#262626" stroke-width="1.5" stroke-linecap="round" stroke-linejoin="round"/>
<path d="M14.2867 15.3584H8.88672" stroke="#262626" stroke-width="1.5" stroke-linecap="round" stroke-linejoin="round"/>
<path d="M12.2427 11.6064H8.88672" stroke="#262626" stroke-width="1.5" stroke-linecap="round" stroke-linejoin="round"/>
</svg>
