<svg width="375" height="752" viewBox="0 0 375 752" fill="none" xmlns="http://www.w3.org/2000/svg">
<rect width="375" height="752" fill="#F5F5F5"/>
<g clip-path="url(#clip0_204_1108)">
<rect width="375" height="812" fill="white"/>
<g filter="url(#filter0_f_204_1108)">
<ellipse cx="188" cy="366.5" rx="129" ry="122.5" fill="#FAE18B"/>
</g>
<g filter="url(#filter1_f_204_1108)">
<ellipse cx="188" cy="216.5" rx="66" ry="63.5" fill="#FF21B3"/>
</g>
<g filter="url(#filter2_f_204_1108)">
<ellipse cx="188" cy="104.5" rx="110" ry="104.5" fill="#74B5FC"/>
</g>
<rect width="375" height="694" fill="url(#paint0_linear_204_1108)"/>
</g>
<defs>
<filter id="filter0_f_204_1108" x="-204" y="-19" width="784" height="771" filterUnits="userSpaceOnUse" color-interpolation-filters="sRGB">
<feFlood flood-opacity="0" result="BackgroundImageFix"/>
<feBlend mode="normal" in="SourceGraphic" in2="BackgroundImageFix" result="shape"/>
<feGaussianBlur stdDeviation="131.5" result="effect1_foregroundBlur_204_1108"/>
</filter>
<filter id="filter1_f_204_1108" x="-141" y="-110" width="658" height="653" filterUnits="userSpaceOnUse" color-interpolation-filters="sRGB">
<feFlood flood-opacity="0" result="BackgroundImageFix"/>
<feBlend mode="normal" in="SourceGraphic" in2="BackgroundImageFix" result="shape"/>
<feGaussianBlur stdDeviation="131.5" result="effect1_foregroundBlur_204_1108"/>
</filter>
<filter id="filter2_f_204_1108" x="-185" y="-263" width="746" height="735" filterUnits="userSpaceOnUse" color-interpolation-filters="sRGB">
<feFlood flood-opacity="0" result="BackgroundImageFix"/>
<feBlend mode="normal" in="SourceGraphic" in2="BackgroundImageFix" result="shape"/>
<feGaussianBlur stdDeviation="131.5" result="effect1_foregroundBlur_204_1108"/>
</filter>
<linearGradient id="paint0_linear_204_1108" x1="187.5" y1="0" x2="187.5" y2="694" gradientUnits="userSpaceOnUse">
<stop stop-color="#D9D9D9" stop-opacity="0"/>
<stop offset="1" stop-color="white"/>
</linearGradient>
<clipPath id="clip0_204_1108">
<rect width="375" height="812" fill="white"/>
</clipPath>
</defs>
</svg>
