<svg width="214" height="208" viewBox="0 0 214 208" fill="none" xmlns="http://www.w3.org/2000/svg">
<path fill-rule="evenodd" clip-rule="evenodd" d="M3.53014 92.2383C5.5667 73.838 8.75642 55.8135 19.0267 40.1896C29.8375 23.7435 43.6326 7.90817 62.8538 1.99109C82.0271 -3.9113 101.619 4.81523 121.339 8.69357C144.184 13.1866 171.608 9.5564 187.053 26.4181C202.678 43.4757 217.417 64.5443 213.3 86.9663C209.62 107.009 211.5 123.989 200.965 141.62C188.62 162.28 153.6 194.804 130.925 204.268C108.399 213.67 80.7848 203.44 58.2114 194.145C37.7892 185.736 17.8707 171.482 6.53529 153.05C-4.46501 135.163 1.24073 112.923 3.53014 92.2383Z" fill="#F6F7FA"/>
<path d="M164.303 162H48.8438L65.5404 66.8553H180.999L164.303 162Z" fill="#EFEFEF"/>
<path d="M105.056 57H67.2671L65.5391 66.8553H105.977L105.056 57Z" fill="#EFEFEF"/>
<g opacity="0.1">
<path d="M164.303 162H48.8438L65.5404 66.8553H180.999L164.303 162Z" fill="black"/>
<path d="M105.056 57H67.2671L65.5391 66.8553H105.977L105.056 57Z" fill="black"/>
</g>
<path d="M63.1899 61.0213C63.058 60.478 62.9944 59.9202 63.0004 59.361C62.9941 58.803 63.0578 58.2465 63.1899 57.7045C63.3257 58.2458 63.3894 58.8028 63.3794 59.361C63.3892 59.9204 63.3255 60.4787 63.1899 61.0213Z" fill="#263238"/>
<path d="M59.8359 61.9962C59.4512 61.5932 59.1189 61.1428 58.8469 60.6558C58.5621 60.179 58.3405 59.6669 58.1875 59.1326C58.5728 59.5323 58.9053 59.9802 59.1766 60.4654C59.4619 60.9446 59.6836 61.4592 59.8359 61.9962Z" fill="#263238"/>
<path d="M57.4115 64.5285C56.8719 64.3715 56.3547 64.1449 55.873 63.8545C55.3876 63.5838 54.9392 63.251 54.5391 62.8644C55.0708 63.0181 55.5804 63.2409 56.0549 63.527C56.5487 63.7998 57.0048 64.1365 57.4115 64.5285Z" fill="#263238"/>
<path d="M56.5742 67.9368C56.0352 68.0714 55.4811 68.1354 54.9258 68.1272C54.3703 68.1373 53.816 68.0732 53.2773 67.9368C54.3618 67.6829 55.4898 67.6829 56.5742 67.9368Z" fill="#263238"/>
<path d="M57.545 71.3108C57.1449 71.6985 56.6966 72.0326 56.2111 72.3047C55.7367 72.5908 55.2271 72.8136 54.6953 72.9673C55.0955 72.5807 55.5439 72.2479 56.0292 71.9772C56.5042 71.6912 57.0136 71.4672 57.545 71.3108Z" fill="#263238"/>
<path d="M60.0664 73.7555C59.913 74.2897 59.6914 74.8017 59.407 75.2787C59.1363 75.7665 58.8038 76.2171 58.418 76.6192C58.5724 76.0853 58.794 75.5734 59.0773 75.0959C59.3479 74.608 59.6803 74.1574 60.0664 73.7555Z" fill="#263238"/>
<path d="M63.4522 74.5895C63.7049 75.6792 63.7049 76.8128 63.4522 77.9025C63.3164 77.3612 63.2527 76.8042 63.2627 76.246C63.2527 75.6878 63.3164 75.1308 63.4522 74.5895Z" fill="#263238"/>
<path d="M66.8164 73.6108C67.1999 74.014 67.531 74.4644 67.8017 74.9513C68.0878 75.4278 68.3108 75.9399 68.4648 76.4745C68.079 76.0724 67.7465 75.6219 67.4758 75.1341C67.1911 74.6573 66.9694 74.1452 66.8164 73.6108Z" fill="#263238"/>
<path d="M69.2383 71.0898C69.7691 71.2479 70.2783 71.4718 70.7541 71.7563C71.2404 72.027 71.6889 72.3612 72.088 72.7502C71.5561 72.5951 71.0465 72.3711 70.5722 72.0838C70.0867 71.8117 69.6384 71.4776 69.2383 71.0898Z" fill="#263238"/>
<path d="M70.0781 67.6626C70.6175 67.5299 71.1713 67.4659 71.7266 67.4722C72.282 67.4621 72.8363 67.5262 73.375 67.6626C72.836 67.7972 72.2819 67.8612 71.7266 67.853C71.1713 67.8594 70.6175 67.7954 70.0781 67.6626Z" fill="#263238"/>
<path d="M69.1055 64.2963C69.5056 63.9085 69.9539 63.5745 70.4394 63.3024C70.914 63.0166 71.4236 62.7939 71.9552 62.6398C71.5564 63.0275 71.1093 63.3616 70.6251 63.6337C70.1487 63.9187 69.638 64.1414 69.1055 64.2963Z" fill="#263238"/>
<path d="M66.5859 61.8629C66.7389 61.3286 66.9606 60.8165 67.2453 60.3397C67.5161 59.8519 67.8485 59.4013 68.2344 58.9993C68.08 59.5331 67.8584 60.045 67.575 60.5225C67.303 61.0095 66.9706 61.4599 66.5859 61.8629Z" fill="#263238"/>
<path d="M164.137 162H48.4276L32 70.3092H147.705L164.137 162Z" fill="#EFEFEF"/>
<path d="M72.098 126.36C74.7538 126.36 76.9069 124.197 76.9069 121.528C76.9069 118.859 74.7538 116.695 72.098 116.695C69.4421 116.695 67.2891 118.859 67.2891 121.528C67.2891 124.197 69.4421 126.36 72.098 126.36Z" fill="#263238"/>
<path d="M110.114 126.36C112.769 126.36 114.922 124.197 114.922 121.528C114.922 118.859 112.769 116.695 110.114 116.695C107.458 116.695 105.305 118.859 105.305 121.528C105.305 124.197 107.458 126.36 110.114 126.36Z" fill="#263238"/>
<path d="M97.9786 127L97.7087 127.482C97.6856 127.525 95.1571 131.913 90.073 131.913C85.4476 131.913 84.2913 127.779 84.2604 127.605L84.1217 127.076L83 127.333L83.1349 127.859C83.1349 127.909 84.511 133 90.073 133C95.8547 133 98.6184 128.188 98.734 127.986L99 127.504L97.9786 127Z" fill="#263238"/>
</svg>
