<svg width="5" height="31" viewBox="0 0 5 31" fill="none" xmlns="http://www.w3.org/2000/svg">
<path d="M1.12592 27.9007C0.414269 27.3314 -1.98035e-07 26.4695 -2.37872e-07 25.5581L-1.11718e-06 5.44188C-1.15702e-06 4.53053 0.414268 3.66858 1.12591 3.09927L5 -2.18557e-07L5 31L1.12592 27.9007Z" fill="#298FFE"/>
</svg>
