<svg width="1742" height="1446" viewBox="0 0 1742 1446" fill="none" xmlns="http://www.w3.org/2000/svg">
<g filter="url(#filter0_f_818_6740)">
<ellipse cx="923.5" cy="862" rx="296.5" ry="130" fill="#FAE18B"/>
</g>
<g filter="url(#filter1_f_818_6740)">
<ellipse cx="610" cy="697.5" rx="156" ry="72.5" fill="#FF21B3"/>
</g>
<g filter="url(#filter2_f_818_6740)">
<ellipse cx="1030.5" cy="573.5" rx="257.5" ry="119.5" fill="#74B5FC"/>
</g>
<defs>
<filter id="filter0_f_818_6740" x="173" y="278" width="1501" height="1168" filterUnits="userSpaceOnUse" color-interpolation-filters="sRGB">
<feFlood flood-opacity="0" result="BackgroundImageFix"/>
<feBlend mode="normal" in="SourceGraphic" in2="BackgroundImageFix" result="shape"/>
<feGaussianBlur stdDeviation="227" result="effect1_foregroundBlur_818_6740"/>
</filter>
<filter id="filter1_f_818_6740" x="0" y="171" width="1220" height="1053" filterUnits="userSpaceOnUse" color-interpolation-filters="sRGB">
<feFlood flood-opacity="0" result="BackgroundImageFix"/>
<feBlend mode="normal" in="SourceGraphic" in2="BackgroundImageFix" result="shape"/>
<feGaussianBlur stdDeviation="227" result="effect1_foregroundBlur_818_6740"/>
</filter>
<filter id="filter2_f_818_6740" x="319" y="0" width="1423" height="1147" filterUnits="userSpaceOnUse" color-interpolation-filters="sRGB">
<feFlood flood-opacity="0" result="BackgroundImageFix"/>
<feBlend mode="normal" in="SourceGraphic" in2="BackgroundImageFix" result="shape"/>
<feGaussianBlur stdDeviation="227" result="effect1_foregroundBlur_818_6740"/>
</filter>
</defs>
</svg>
